module github.com/containers/oci-seccomp-bpf-hook

go 1.19

require (
	github.com/containers/common v0.56.0
	github.com/containers/storage v1.50.2
	github.com/iovisor/gobpf v0.2.1-0.20221005153822-16120a1bf4d4
	github.com/opencontainers/runtime-spec v1.1.0
	github.com/seccomp/libseccomp-golang v0.10.0
	github.com/sirupsen/logrus v1.9.3
	github.com/stretchr/testify v1.8.4
)

require (
	github.com/davecgh/go-spew v1.1.1 // indirect
	github.com/docker/go-units v0.5.0 // indirect
	github.com/kr/pretty v0.3.1 // indirect
	github.com/moby/sys/mountinfo v0.6.2 // indirect
	github.com/opencontainers/runc v1.1.9 // indirect
	github.com/pmezard/go-difflib v1.0.0 // indirect
	github.com/syndtr/gocapability v0.0.0-20200815063812-42c35b437635 // indirect
	golang.org/x/sys v0.12.0 // indirect
	gopkg.in/check.v1 v1.0.0-20201130134442-10cb98267c6c // indirect
	gopkg.in/yaml.v3 v3.0.1 // indirect
)
